{
    "$jason": {
      "head": {
        "title": "Basic"
      },
      "body": {
        "header": {
          "title": "Basic Example",
          "style": {
            "background": "#3a3a3a",
            "color": "#ffffff",
            "padding": "10"
          }
        },
        "background": "#2a2a2a",
        "sections": [{
          "items": [ {
            "type": "image",
            "url" : "http://www.oecd.org/media/oecdorg/directorates/directorateforeducation/webimages/E2030_Visual_Framework_Feb-18%20(2)-1000x571.png"
          }]
        }]
      }
    }
  }